<svg xmlns="http://www.w3.org/2000/svg" width="256" height="256" viewBox="0 0 256 256">
  <g id="Logo" transform="translate(-1465 -649)">
    <g id="Group_1" data-name="Group 1" transform="translate(1465 680.731)">
      <path id="Path_1" data-name="Path 1" d="M1467.828,903.359c1.119-4.6,6.734-49.858,96.129-62.794-6.93-10.857-.66-27.944,6.384-31.414-10.2-.315-23.236,4.1-23.236,4.1l-.419-1.6a22.746,22.746,0,0,0,3.258-11.441c0-9.358-8.306-18.61-21.554-18.61s-20.608,11.231-20.608,21.554,8.727,14.72,14.51,17.033C1484.335,835.542,1456.047,861.937,1467.828,903.359Z" transform="translate(-1465.124 -781.604)" fill="#315da4"/>
      <path id="Path_2" data-name="Path 2" d="M1567.638,903.359c-1.119-4.6-6.733-49.858-96.129-62.794,6.93-10.857.66-27.944-6.384-31.414,10.2-.315,23.237,4.1,23.237,4.1l.419-1.6a22.745,22.745,0,0,1-3.258-11.441c0-9.358,8.306-18.61,21.554-18.61s20.608,11.231,20.608,21.554-8.727,14.72-14.51,17.033C1551.131,835.542,1579.418,861.937,1567.638,903.359Z" transform="translate(-1314.536 -781.604)" fill="#315da4"/>
      <path id="Path_3" data-name="Path 3" d="M1509.667,980.622s-11.319-12.636-11.319-26.565c0-33.523,50.58-57.749,101.87-57.749s102.563,18.628,102.563,57.749c0,7.4-3.234,17.094-7.392,24.024,13.86-8.085,25.179-25.148,25.179-39.27s-17.094-58.211-108.338-65.372c6.006-2.772,12.895-11.2,12.895-19.751s-7.817-21.449-23.552-21.449-23.042,13.982-22.921,21.449,3.049,13.353,12.512,18.926c-60.667,2.839-108.061,36.609-108.061,67.815C1483.1,962.841,1509.667,980.622,1509.667,980.622Z" transform="translate(-1473.434 -805.007)" fill="#93a83b"/>
      <path id="Path_4" data-name="Path 4" d="M1553.333,1002.383s-4.442,6.04-4.442,15.992,10.306,33.583,65.746,38.737a22.115,22.115,0,0,1-9.24-18.125c0-6.584,4.433-20.612,20.434-20.612s20.79,13.149,20.79,20.612-4.087,14.748-9.773,18.125c29.319.711,65.923-17.947,65.213-38.737-.382-11.189-4.975-16.881-7.818-20.257,14.749,10.484,20.257,18.623,20.257,30.207s-18.126,45.489-88.668,45.489-88.495-33.761-88.845-46.022S1553.333,1002.383,1553.333,1002.383Z" transform="translate(-1498.335 -881.674)" fill="#315da4"/>
    </g>
    <rect id="Rectangle_1" data-name="Rectangle 1" width="256" height="256" transform="translate(1465 649)" fill="none"/>
  </g>
</svg>
